Exploring the Brazilian Federal Senate
…
The API of the Brazilian Federal Senate can be explored with congressbr by searching for details on individual senators, commissions and votes, among other options.

congressbr can be installed by running:

if(!require(devtools)){install.packages("devtools")}
devtools::install_github("RobertMyles/congressbr")
library(congressbr)

Votes

The voting behaviour of legislators is an area of great interest both inside and outside of academia. congressbr has the sen_votes() function, which returns a data frame of votes in the Senate. These are not necessarily nominal votes, as some may be secret votes. In this case, the API records whether the senator voted or not. The other variables in the data frame returned pertain to the time of the vote, its number, id, year, description and its result. Information on individual senators (their party, name, id, gender and state) is also returned. This function has an argument, binary, which if TRUE, transforms the recorded (nominal) votes from “Yes” to 1 and “No” to 0. This is handy if you want to use the wnominate, pscl or MCMCpack functions to run ideal point analyses, for example.

sen_votes(date = "20160908")

## # A tibble: 486 × 16
##     vote_date vote_time vote_round bill_id bill_number bill_type bill_year
##        <dttm>     <chr>      <dbl>   <chr>       <chr>     <chr>     <chr>
## 1  2016-09-08     14:00          1  126544       00076       MSF      2016
## 2  2016-09-08     14:00          1  126544       00076       MSF      2016
## 3  2016-09-08     14:00          1  126544       00076       MSF      2016
## 4  2016-09-08     14:00          1  126544       00076       MSF      2016
## 5  2016-09-08     14:00          1  126544       00076       MSF      2016
## 6  2016-09-08     14:00          1  126544       00076       MSF      2016
## 7  2016-09-08     14:00          1  126544       00076       MSF      2016
## 8  2016-09-08     14:00          1  126544       00076       MSF      2016
## 9  2016-09-08     14:00          1  126544       00076       MSF      2016
## 10 2016-09-08     14:00          1  126544       00076       MSF      2016
## # ... with 476 more rows, and 9 more variables: bill_description <chr>,
## #   vote_result <chr>, vote_secret <chr>, senator_id <chr>,
## #   senator_name <chr>, senator_vote <chr>, senator_gender <chr>,
## #   senator_party <chr>, senator_state <chr>

For convenience, we have included a dataset of all nominal votes in the Federal Senate from 1991 to early 2017, which can be accessed with data("senate_nominal_votes").

Senator info

Information on individual senators can be had with sen_senator_details(). This function returns the senator’s id, name, party and state, as well as information on his/her date of birth, place of birth, their mandates, and office information (email etc.). If the senator is a titular senator, information on his/her deputies (suplentes) is available with sen_senator_suplentes(). The senator’s votes can be had with sen_senator_votes(), and their mandates with sen_senator_mandates(). Information on the commissions that the senator has served on is available with sen_senator_commissions(), and the bills that they sponsored or authored with sen_senator_bills(). For information on absences and party affiliations, use sen_senator(). All of these functions use the senator’s id. A data frame of all of these is available from the function sen_senator_list():

sen_senator_list()

## # A tibble: 81 × 17
##       id                        name_full             name_senator
##    <chr>                            <chr>                    <chr>
## 1   4981              Acir Marcos Gurgacz             Acir Gurgacz
## 2   5140          Airton Sandoval Santana          Airton Sandoval
## 3    945            Alvaro Fernandes Dias              Alvaro Dias
## 4   4988              Ana Amelia de Lemos               Ana Amelia
## 5   5529  Antonio Augusto Junho Anastasia        Antonio Anastasia
## 6      3         Antonio Carlos Valadares Antonio Carlos Valadares
## 7    715 Armando de Queiroz Monteiro Neto         Armando Monteiro
## 8   5164              Ataides de Oliveira         Ataides Oliveira
## 9    391             Aecio Neves da Cunha              Aecio Neves
## 10  3823                 Benedito de Lira         Benedito de Lira
## # ... with 71 more rows, and 14 more variables: gender <chr>,
## #   foto_url <chr>, page_url <chr>, office_email <chr>, party_abbr <chr>,
## #   id_mandate <chr>, state <chr>, status <chr>,
## #   num_legislature_first_term <chr>, first_term_start <dttm>,
## #   first_term_end <dttm>, num_legislature_second_term <chr>,
## #   second_term_start <dttm>, second_term_end <dttm>
…
A data frame of commissions (full name and abbreviation) can be obtained with data("commissions"). The sen_commissions() function returns a detailed dataframe of commissions, their ids, type, house and purpose. Commissions can be explored by type variable returned from this function. For example, the “cpi” type (Comissão de Inquérito Parlamentar, Parliamentary Inquiry Commission) can be used in the sen_commissions_type() function, which will return a data frame of commissions of the type specified. Using the commission abbreviations, we can see which senators serve on the commission. One well-known commission is the Commission for the Constitution, Justice and Citizenship (Constituicao, Justica e Cidadania). Its abbreviation is “CCJ”:

sen_commissions_senators(code = "CCJ")

## # A tibble: 47 × 6
##                                       commission commission_abbr
##                                            <chr>           <chr>
## 1  Comissao de Constituicao, Justica e Cidadania             CCJ
## 2  Comissao de Constituicao, Justica e Cidadania             CCJ
## 3  Comissao de Constituicao, Justica e Cidadania             CCJ
## 4  Comissao de Constituicao, Justica e Cidadania             CCJ
## 5  Comissao de Constituicao, Justica e Cidadania             CCJ
## 6  Comissao de Constituicao, Justica e Cidadania             CCJ
## 7  Comissao de Constituicao, Justica e Cidadania             CCJ
## 8  Comissao de Constituicao, Justica e Cidadania             CCJ
## 9  Comissao de Constituicao, Justica e Cidadania             CCJ
## 10 Comissao de Constituicao, Justica e Cidadania             CCJ
## # ... with 37 more rows, and 4 more variables: senator_id <chr>,
## #   senator_name <chr>, senator_party <chr>, senator_state <chr>

General Information

Parties

A list of the parties who have held seats in the Senate can be had with sen_parties():

sen_parties()

## # A tibble: 46 × 4
##    party_id party_abbr                       party_name date_created
##       <chr>      <chr>                            <chr>        <chr>
## 1       554        DEM                       Democratas   2007-03-28
## 2       566       NOVO                     Partido Novo   2015-09-15
## 3       142        PAN Partido dos Aposentados da Nacao   1998-02-19
## 4        94        PCB     Partido Comunista Brasileiro   1922-03-25
## 5       144        PCN    Partido Comunitario  Nacional   1985-07-01
## 6       145        PCO        Partido da Causa Operaria   1997-09-30
## 7        86      PCdoB      Partido Comunista do Brasil   1962-02-01
## 8        20        PDT  Partido Democratico Trabalhista   1980-09-16
## 9       559        PEN       Partido Ecologico Nacional   2012-06-19
## 10      146         PF              Partido Federalista   1900-01-01
## # ... with 36 more rows
…
UF()

##  [1] "AC" "AL" "AP" "AM" "BA" "CE" "DF" "ES" "GO" "MA" "MT" "MS" "MG" "PA"
## [15] "PB" "PR" "PE" "PI" "RJ" "RN" "RS" "RO" "RR" "SC" "SP" "SE"

Bill types

The Senate API can be queried by the type of bill. If you are not familiar with the types of bills that come to the Senate floor, use sen_bills_types(). Other similar functions, useful for getting to know the Senate, are sen_plenary_sessions(), which returns data on the types of sessions held in the Senate, sen_bills_topics(), which returns a data frame with the topic labels for different subject categories.

The bill types can be used for other queries, such as for seeing what bills of a certain type are currently passing through the house. For example, we can see which MPVs (medida provisória; executive decree) were under consideration in the Senate in 2001:

sen_bills_passing(year = "2001", type = "MPV")

## # A tibble: 49 × 4
##    bill_id bill_number bill_year bill_type
##      <chr>       <chr>     <chr>     <chr>
## 1    48017       02162      2001       MPV
## 2    48018       02163      2001       MPV
## 3    48019       02167      2001       MPV
## 4    48020       02170      2001       MPV
## 5    48021       02172      2001       MPV
## 6    48022       02173      2001       MPV
## 7    48025       02189      2001       MPV
## 8    48032       02161      2001       MPV
## 9    48034       02165      2001       MPV
## 10   48036       02190      2001       MPV
## # ... with 39 more rows

This function can also be used to get information for a single date.

congressbr also has functions for accessing budget information (sen_budget()), and the agenda in the Senate for a particular date, or range of dates:

sen_agenda(initial_date = "20161105", end_date = "20161125")

## # A tibble: 87 × 12
##    agenda_id                        agenda_title
##        <chr>                               <chr>
## 1       5551           CCS, as 09h, 15ª, Reuniao
## 2       5537    CDH, as 10h, 94ª, Extraordinaria
## 3       5553           CCS, as 14h, 16ª, Reuniao
## 4       5576        CJD, as 14h:30, 17ª, Reuniao
## 5       5591    CDH, as 15h, 95ª, Extraordinaria
## 6       5563 CCT, as 08h:45, 33ª, Extraordinaria
## 7       5535    CDH, as 09h, 96ª, Extraordinaria
## 8       5578 CMA, as 09h:30, 19ª, Extraordinaria
## 9       5598       CCJ,CAE, as 10h, 7ª, Conjunta
## 10      5581    CTG, as 11h, 15ª, Extraordinaria
## # ... with 77 more rows, and 10 more variables: agenda_name <chr>,
## #   agenda_type <chr>, agenda_date <dttm>, agenda_time <chr>,
## #   agenda_status <chr>, agenda_place <chr>,
## #   agenda_commission_house <chr>, agenda_commission_abbr <chr>,
## #   agenda_commission_id <chr>, agenda_commission_meeting_number <chr>
