Exploring the Brazilian Chamber of Deputies • congressbr
…
First, we need to install congressbr. You can install the package by running:

if(!require(devtools)){install.packages("devtools", repos = "http://cran.us.r-project.org")}
if(!require(ggplot2)){install.packages("ggplot2", repos = "http://cran.us.r-project.org")}

library(congressbr)
library(ggplot2)

Votes

congressbr has a dedicated function that returns a dataset with information about votes of a specific bill in the Câmara dos Deputados, the cham_votes() function. As we mentioned in the Senate vignette, the votes returned by the API are not necessarily nominal votes. This is because some votes are secret, thus the API only informs us if the deputy voted or not. Users have to provide the type (type =), number (number =) and year (year =) of the bill in question. Unfortunately, a particular bill can have more than one roll call, and the API does not provide an id to identify them. So we have provided one, the variable rollcall_id in the data frame. For instance, we can retrieve information about the proposition 1992/2007 with:

cham_votes(type = "PL", number = "1992", year = "2007")

## # A tibble: 2,052 x 31
##       rollcall_id
##             <chr>
##  1 PL-1992-2007-1
##  2 PL-1992-2007-1
##  3 PL-1992-2007-1
##  4 PL-1992-2007-1
##  5 PL-1992-2007-1
##  6 PL-1992-2007-1
##  7 PL-1992-2007-1
##  8 PL-1992-2007-1
##  9 PL-1992-2007-1
## 10 PL-1992-2007-1
## # ... with 2,042 more rows, and 30 more variables: decision_summary <chr>,
## #   decision_date <chr>, decision_time <chr>, rollcall_subject <chr>,
## #   session_id <chr>, DEM_orientation <chr>, GOV_orientation <chr>,
## #   Minoria_orientation <chr>, PDT_orientation <chr>,
## #   PMDB_orientation <chr>, PMN_orientation <chr>, PP_orientation <chr>,
## #   PRB_orientation <chr>, PrPtdobPrpPhsPtcPslPrtb_orientation <chr>,
## #   PsbPtbPcdob_orientation <chr>, PSC_orientation <chr>,
## #   PSD_orientation <chr>, PSDB_orientation <chr>, PSOL_orientation <chr>,
## #   PT_orientation <chr>, PvPps_orientation <chr>, legislator_id <chr>,
…
## # A tibble: 1 x 19
##    bill_type bill_number bill_year bill_id    bill_name
##        <chr>       <chr>     <chr>   <chr>        <chr>
## 1 PEC                472      1997   14784 PEC 472/1997
## # ... with 14 more variables: type_name <chr>, bill_subject <chr>,
## #   ementa_txt <chr>, ementa_explanation <chr>, author_name <chr>,
## #   author_id <chr>, author_state <chr>, author_party <chr>,
## #   bill_index <chr>, presentation_date <chr>, complete_link <chr>,
## #   situation_desc <chr>, last_action_desc <chr>, last_action_date <chr>

Users can download all every bill voted on in plenary in a given calendar year with cham_plenary_bills(). The function has a single parameter, year =, and returns the id of the bill (bill_id), its name (bill_name), and the day on which it was voted (vote_date)

cham_plenary_bills(year = 2008)

## # A tibble: 158 x 3
##    bill_id    bill_name  vote_date
##      <chr>        <chr>      <chr>
##  1   26523 PLP 183/2001 09/12/2008
##  2  129219 PEC 138/2003 13/08/2008
##  3  129219 PEC 138/2003 12/11/2008
##  4  129219 PEC 138/2003 12/11/2008
##  5  129219 PEC 138/2003 12/11/2008
##  6  129219 PEC 138/2003 12/11/2008
##  7  253010 PLP 177/2004 13/08/2008
##  8  255794 PLP 182/2004 13/08/2008
##  9  257126 PLP 184/2004 10/12/2008
## 10  269852 PEC 333/2004 27/05/2008
## # ... with 148 more rows

Finally, congressbr also features cham_typeauthors_bills(), a convenience function that downloads the types of authors for bills.

cham_typeauthors_bills()

## # A tibble: 43 x 2
##    type_id                           type_desc
##      <chr>                               <chr>
##  1       1                   Comissao Diretora
##  2      10                   Grupo de Trabalho
##  3    1000 Importacao das proposicoes inativas
##  4   10000                          Deputado  
##  5      11                            Conselho
##  6     110    Comissao da Camara dos Deputados
##  7      12            Procuradoria Parlamentar
##  8   12000       Orgao da Camara dos Deputados
##  9      13                        Corregedoria
## 10   13000           Comissao Temporaria da CD
## # ... with 33 more rows
…
