Exploring the Brazilian Federal Senate • congressbr
…
congressbr can be installed by running:

install.packages("congressbr")

And then loaded with:

library(congressbr)

Votes

The voting behaviour of legislators is an area of great interest both inside and outside of academia. congressbr has the sen_votes() function, which returns a data frame of votes in the Senate. These are not necessarily nominal votes, as some may be secret votes. In this case, the API records whether the senator voted or not. The other variables in the data frame returned pertain to the time of the vote, its number, id, year, description and its result. Information on individual senators (their party, name, id, gender and state) is also returned. This function has an argument, binary, which if TRUE, transforms the recorded (nominal) votes from “Yes” to 1 and “No” to 0. This is handy if you want to use the wnominate, pscl or MCMCpack functions to run ideal point analyses, for example. Please note that dates are in “yyyymmdd” format.

sen_votes(date = "20160908")

## # A tibble: 486 x 17
##    vote_date           vote_time vote_round bill_id bill_number bill_type
##    <dttm>              <chr>          <dbl> <chr>   <chr>       <chr>    
##  1 2016-09-08 00:00:00 14:00              1 126544  00076       MSF      
##  2 2016-09-08 00:00:00 14:00              1 126544  00076       MSF      
##  3 2016-09-08 00:00:00 14:00              1 126544  00076       MSF      
##  4 2016-09-08 00:00:00 14:00              1 126544  00076       MSF      
##  5 2016-09-08 00:00:00 14:00              1 126544  00076       MSF      
##  6 2016-09-08 00:00:00 14:00              1 126544  00076       MSF      
##  7 2016-09-08 00:00:00 14:00              1 126544  00076       MSF      
##  8 2016-09-08 00:00:00 14:00              1 126544  00076       MSF      
##  9 2016-09-08 00:00:00 14:00              1 126544  00076       MSF      
## 10 2016-09-08 00:00:00 14:00              1 126544  00076       MSF      
## # … with 476 more rows, and 11 more variables: bill_year <chr>,
## #   bill_description <chr>, rollcall_id <chr>, vote_result <chr>,
## #   vote_secret <chr>, senator_id <chr>, senator_name <chr>,
## #   senator_vote <chr>, senator_gender <chr>, senator_party <chr>,
## #   senator_state <chr>
…
Senator info

Information on individual senators can be had with sen_senator_details(). This function returns the senator’s id, name, party and state, as well as information on his/her date of birth, place of birth, their mandates, and office information such as email and correspondence address. If the senator is a titular senator, information on his/her deputies (suplentes) is available with sen_senator_suplentes(). The senator’s votes can be had with sen_senator_votes(), and their mandates with sen_senator_mandates(). For information on absences and party affiliations, use sen_senator(). All of these functions use the senator’s id (with the id option). A data frame of all of these is available from the function sen_senator_list():

sen_senator_list()

## # A tibble: 81 x 17
##    id    name_full name_senator gender foto_url page_url office_email
##    <chr> <chr>     <chr>        <chr>  <chr>    <chr>    <chr>       
##  1 4981  Acir Mar… Acir Gurgacz Mascu… http://… http://… acir@senado…
##  2 5982  Alessand… Alessandro … Mascu… http://… http://… sen.alessan…
##  3 945   Alvaro F… Alvaro Dias  Mascu… http://… http://… alvarodias@…
##  4 5967  Angelo M… Angelo Coro… Mascu… http://… http://… sen.angeloc…
##  5 5529  Antonio … Antonio Ana… Mascu… http://… http://… antonio.ana…
##  6 751   Arolde d… Arolde de O… Mascu… http://… http://… sen.arolded…
##  7 5990  Carlos A… Carlos Viana Mascu… http://… http://… sen.carlosv…
##  8 470   Francisc… Chico Rodri… Mascu… http://… http://… sen.chicoro…
##  9 5973  Cid Ferr… Cid Gomes    Mascu… http://… http://… sen.cidgome…
## 10 739   Ciro Nog… Ciro Noguei… Mascu… http://… http://… ciro.noguei…
## # … with 71 more rows, and 10 more variables: party_abbr <chr>,
## #   id_mandate <chr>, state <chr>, status <chr>,
## #   num_legislature_first_term <chr>, first_term_start <dttm>,
## #   first_term_end <dttm>, num_legislature_second_term <chr>,
## #   second_term_start <dttm>, second_term_end <dttm>
…
General Information

Parties

A list of the parties who have held seats in the Senate can be had with sen_parties():

sen_parties()

## # A tibble: 49 x 4
##    party_id party_abbr party_name                       date_created
##    <chr>    <chr>      <chr>                            <chr>       
##  1 578      AVANTE     AVANTE                           2017-09-12  
##  2 581      DC         Democracia Crista                2015-01-01  
##  3 554      DEM        Democratas                       2007-03-28  
##  4 33       MDB        Movimento Democratico Brasileiro 1980-01-01  
##  5 566      NOVO       Partido Novo                     2015-09-15  
##  6 142      PAN        Partido dos Aposentados da Nacao 1998-02-19  
##  7 579      PATRI      Patriota                         2018-04-26  
##  8 94       PCB        Partido Comunista Brasileiro     1922-03-25  
##  9 144      PCN        Partido Comunitario  Nacional    1985-07-01  
## 10 145      PCO        Partido da Causa Operaria        1997-09-30  
## # … with 39 more rows
…
UF()

##  [1] "AC" "AL" "AP" "AM" "BA" "CE" "DF" "ES" "GO" "MA" "MT" "MS" "MG" "PA"
## [15] "PB" "PR" "PE" "PI" "RJ" "RN" "RS" "RO" "RR" "SC" "SP" "SE" "TO"

Bill types

The Senate API can be queried by the type of bill. If you are not familiar with the types of bills that come to the Senate floor, use sen_bills_types(). Other similar functions, useful for getting to know the Senate, are sen_plenary_sessions(), which returns data on the types of sessions held in the Senate, sen_bills_topics(), which returns a data frame with the topic labels for different subject categories.

The bill types can be used for other queries, such as for seeing what bills of a certain type are currently passing through the house. For example, we can see which MPVs (medida provisória; executive decree) were under consideration in the Senate in 2001:

sen_bills_passing(year = "2001", type = "MPV")

## # A tibble: 49 x 4
##    bill_id bill_number bill_year bill_type
##    <chr>   <chr>       <chr>     <chr>    
##  1 48017   02162       2001      MPV      
##  2 48018   02163       2001      MPV      
##  3 48019   02167       2001      MPV      
##  4 48020   02170       2001      MPV      
##  5 48021   02172       2001      MPV      
##  6 48022   02173       2001      MPV      
##  7 48025   02189       2001      MPV      
##  8 48032   02161       2001      MPV      
##  9 48034   02165       2001      MPV      
## 10 48036   02190       2001      MPV      
## # … with 39 more rows

This function can also be used to get information for a single date.

congressbr also has functions for accessing budget information (sen_budget()), and the agenda in the Senate for a particular date, or range of dates:

sen_agenda(initial_date = "20161105", end_date = "20161125")

## # A tibble: 87 x 12
##    agenda_id agenda_title agenda_name agenda_type agenda_date        
##    <chr>     <chr>        <chr>       <chr>       <dttm>             
##  1 5551      CCS, as 09h… Reuniao de… Reuniao     2016-11-07 00:00:00
##  2 5537      CDH, as 10h… Audiencia … Extraordin… 2016-11-07 00:00:00
##  3 5553      CCS, as 14h… Reuniao de… Reuniao     2016-11-07 00:00:00
##  4 5576      CJD, as 14h… Audiencia … Reuniao     2016-11-07 00:00:00
##  5 5591      CDH, as 15h… Audiencia … Extraordin… 2016-11-07 00:00:00
##  6 5563      CCT, as 08h… Audiencia … Extraordin… 2016-11-08 00:00:00
##  7 5535      CDH, as 09h… Audiencia … Extraordin… 2016-11-08 00:00:00
##  8 5578      CMA, as 09h… Deliberati… Extraordin… 2016-11-08 00:00:00
##  9 5598      CCJ,CAE, as… Audiencia … Conjunta    2016-11-08 00:00:00
## 10 5581      CTG, as 11h… <NA>        Extraordin… 2016-11-08 00:00:00
## # … with 77 more rows, and 7 more variables: agenda_time <chr>,
## #   agenda_status <chr>, agenda_place <chr>,
## #   agenda_commission_house <chr>, agenda_commission_abbr <chr>,
## #   agenda_commission_id <chr>, agenda_commission_meeting_number <chr>
…
